%YAML 1.1
%TAG !u! tag:unity3d.com,2011:
--- !u!29 &1
OcclusionCullingSettings:
  m_ObjectHideFlags: 0
  serializedVersion: 2
  m_OcclusionBakeSettings:
    smallestOccluder: 5
    smallestHole: 0.25
    backfaceThreshold: 100
  m_SceneGUID: 00000000000000000000000000000000
  m_OcclusionCullingData: {fileID: 0}
--- !u!104 &2
RenderSettings:
  m_ObjectHideFlags: 0
  serializedVersion: 9
  m_Fog: 0
  m_FogColor: {r: 0.5, g: 0.5, b: 0.5, a: 1}
  m_FogMode: 3
  m_FogDensity: 0.01
  m_LinearFogStart: 0
  m_LinearFogEnd: 300
  m_AmbientSkyColor: {r: 0.7764706, g: 0.7531607, b: 0.5652249, a: 1.76}
  m_AmbientEquatorColor: {r: 0.45560554, g: 0.5435294, b: 0.536253, a: 1.76}
  m_AmbientGroundColor: {r: 0.9317647, g: 0.833564, b: 0.6371627, a: 1.76}
  m_AmbientIntensity: 1.76
  m_AmbientMode: 1
  m_SubtractiveShadowColor: {r: 0.42, g: 0.478, b: 0.627, a: 1}
  m_SkyboxMaterial: {fileID: 0}
  m_HaloStrength: 0.5
  m_FlareStrength: 1
  m_FlareFadeSpeed: 3
  m_HaloTexture: {fileID: 0}
  m_SpotCookie: {fileID: 10001, guid: 0000000000000000e000000000000000, type: 0}
  m_DefaultReflectionMode: 0
  m_DefaultReflectionResolution: 128
  m_ReflectionBounces: 1
  m_ReflectionIntensity: 1
  m_CustomReflection: {fileID: 0}
  m_Sun: {fileID: 0}
  m_IndirectSpecularColor: {r: 0, g: 0, b: 0, a: 1}
  m_UseRadianceAmbientProbe: 0
--- !u!157 &3
LightmapSettings:
  m_ObjectHideFlags: 0
  serializedVersion: 11
  m_GIWorkflowMode: 1
  m_GISettings:
    serializedVersion: 2
    m_BounceScale: 1
    m_IndirectOutputScale: 1
    m_AlbedoBoost: 1
    m_EnvironmentLightingMode: 0
    m_EnableBakedLightmaps: 0
    m_EnableRealtimeLightmaps: 0
  m_LightmapEditorSettings:
    serializedVersion: 12
    m_Resolution: 2
    m_BakeResolution: 40
    m_AtlasSize: 1024
    m_AO: 0
    m_AOMaxDistance: 1
    m_CompAOExponent: 0
    m_CompAOExponentDirect: 0
    m_ExtractAmbientOcclusion: 0
    m_Padding: 2
    m_LightmapParameters: {fileID: 0}
    m_LightmapsBakeMode: 1
    m_TextureCompression: 1
    m_FinalGather: 0
    m_FinalGatherFiltering: 1
    m_FinalGatherRayCount: 1024
    m_ReflectionCompression: 2
    m_MixedBakeMode: 1
    m_BakeBackend: 0
    m_PVRSampling: 1
    m_PVRDirectSampleCount: 32
    m_PVRSampleCount: 512
    m_PVRBounces: 2
    m_PVREnvironmentSampleCount: 512
    m_PVREnvironmentReferencePointCount: 2048
    m_PVRFilteringMode: 0
    m_PVRDenoiserTypeDirect: 0
    m_PVRDenoiserTypeIndirect: 0
    m_PVRDenoiserTypeAO: 0
    m_PVRFilterTypeDirect: 0
    m_PVRFilterTypeIndirect: 0
    m_PVRFilterTypeAO: 0
    m_PVREnvironmentMIS: 0
    m_PVRCulling: 1
    m_PVRFilteringGaussRadiusDirect: 1
    m_PVRFilteringGaussRadiusIndirect: 5
    m_PVRFilteringGaussRadiusAO: 2
    m_PVRFilteringAtrousPositionSigmaDirect: 0.5
    m_PVRFilteringAtrousPositionSigmaIndirect: 2
    m_PVRFilteringAtrousPositionSigmaAO: 1
    m_ShowResolutionOverlay: 1
    m_ExportTrainingData: 0
  m_LightingDataAsset: {fileID: 0}
  m_UseShadowmask: 0
--- !u!196 &4
NavMeshSettings:
  serializedVersion: 2
  m_ObjectHideFlags: 0
  m_BuildSettings:
    serializedVersion: 2
    agentTypeID: 0
    agentRadius: 0.5
    agentHeight: 2
    agentSlope: 45
    agentClimb: 0.4
    ledgeDropHeight: 0
    maxJumpAcrossDistance: 0
    minRegionArea: 2
    manualCellSize: 0
    cellSize: 0.16666667
    manualTileSize: 0
    tileSize: 256
    accuratePlacement: 0
    debug:
      m_Flags: 0
  m_NavMeshData: {fileID: 0}
--- !u!1001 &32271395
PrefabInstance:
  m_ObjectHideFlags: 0
  serializedVersion: 2
  m_Modification:
    m_TransformParent: {fileID: 0}
    m_Modifications:
    - target: {fileID: 452326, guid: 07af7219957029f44be2b1df06ec65fe, type: 3}
      propertyPath: m_LocalPosition.x
      value: 1.97
      objectReference: {fileID: 0}
    - target: {fileID: 452326, guid: 07af7219957029f44be2b1df06ec65fe, type: 3}
      propertyPath: m_LocalPosition.y
      value: 0
      objectReference: {fileID: 0}
    - target: {fileID: 452326, guid: 07af7219957029f44be2b1df06ec65fe, type: 3}
      propertyPath: m_LocalPosition.z
      value: 0
      objectReference: {fileID: 0}
    - target: {fileID: 452326, guid: 07af7219957029f44be2b1df06ec65fe, type: 3}
      propertyPath: m_LocalRotation.x
      value: 0
      objectReference: {fileID: 0}
    - target: {fileID: 452326, guid: 07af7219957029f44be2b1df06ec65fe, type: 3}
      propertyPath: m_LocalRotation.y
      value: 0
      objectReference: {fileID: 0}
    - target: {fileID: 452326, guid: 07af7219957029f44be2b1df06ec65fe, type: 3}
      propertyPath: m_LocalRotation.z
      value: 0
      objectReference: {fileID: 0}
    - target: {fileID: 452326, guid: 07af7219957029f44be2b1df06ec65fe, type: 3}
      propertyPath: m_LocalRotation.w
      value: 1
      objectReference: {fileID: 0}
    - target: {fileID: 452326, guid: 07af7219957029f44be2b1df06ec65fe, type: 3}
      propertyPath: m_RootOrder
      value: 5
      objectReference: {fileID: 0}
    m_RemovedComponents: []
  m_SourcePrefab: {fileID: 100100000, guid: 07af7219957029f44be2b1df06ec65fe, type: 3}
--- !u!1001 &414934258
PrefabInstance:
  m_ObjectHideFlags: 0
  serializedVersion: 2
  m_Modification:
    m_TransformParent: {fileID: 0}
    m_Modifications:
    - target: {fileID: 486822, guid: 82aff9a2be76668498b842e0d6abe371, type: 3}
      propertyPath: m_LocalPosition.x
      value: 4.74
      objectReference: {fileID: 0}
    - target: {fileID: 486822, guid: 82aff9a2be76668498b842e0d6abe371, type: 3}
      propertyPath: m_LocalPosition.y
      value: 1.41
      objectReference: {fileID: 0}
    - target: {fileID: 486822, guid: 82aff9a2be76668498b842e0d6abe371, type: 3}
      propertyPath: m_LocalPosition.z
      value: 0
      objectReference: {fileID: 0}
    - target: {fileID: 486822, guid: 82aff9a2be76668498b842e0d6abe371, type: 3}
      propertyPath: m_LocalRotation.x
      value: 0
      objectReference: {fileID: 0}
    - target: {fileID: 486822, guid: 82aff9a2be76668498b842e0d6abe371, type: 3}
      propertyPath: m_LocalRotation.y
      value: 0
      objectReference: {fileID: 0}
    - target: {fileID: 486822, guid: 82aff9a2be76668498b842e0d6abe371, type: 3}
      propertyPath: m_LocalRotation.z
      value: 0
      objectReference: {fileID: 0}
    - target: {fileID: 486822, guid: 82aff9a2be76668498b842e0d6abe371, type: 3}
      propertyPath: m_LocalRotation.w
      value: 1
      objectReference: {fileID: 0}
    - target: {fileID: 486822, guid: 82aff9a2be76668498b842e0d6abe371, type: 3}
      propertyPath: m_RootOrder
      value: 10
      objectReference: {fileID: 0}
    m_RemovedComponents: []
  m_SourcePrefab: {fileID: 100100000, guid: 82aff9a2be76668498b842e0d6abe371, type: 3}
--- !u!1001 &487440152
PrefabInstance:
  m_ObjectHideFlags: 0
  serializedVersion: 2
  m_Modification:
    m_TransformParent: {fileID: 0}
    m_Modifications:
    - target: {fileID: 487016, guid: 7df412b000e517f45bf54a61af8eaab8, type: 3}
      propertyPath: m_LocalPosition.x
      value: -0.75
      objectReference: {fileID: 0}
    - target: {fileID: 487016, guid: 7df412b000e517f45bf54a61af8eaab8, type: 3}
      propertyPath: m_LocalPosition.y
      value: 1.44
      objectReference: {fileID: 0}
    - target: {fileID: 487016, guid: 7df412b000e517f45bf54a61af8eaab8, type: 3}
      propertyPath: m_LocalPosition.z
      value: 0
      objectReference: {fileID: 0}
    - target: {fileID: 487016, guid: 7df412b000e517f45bf54a61af8eaab8, type: 3}
      propertyPath: m_LocalRotation.x
      value: 0
      objectReference: {fileID: 0}
    - target: {fileID: 487016, guid: 7df412b000e517f45bf54a61af8eaab8, type: 3}
      propertyPath: m_LocalRotation.y
      value: 1
      objectReference: {fileID: 0}
    - target: {fileID: 487016, guid: 7df412b000e517f45bf54a61af8eaab8, type: 3}
      propertyPath: m_LocalRotation.z
      value: 0
      objectReference: {fileID: 0}
    - target: {fileID: 487016, guid: 7df412b000e517f45bf54a61af8eaab8, type: 3}
      propertyPath: m_LocalRotation.w
      value: -0.00000016292068
      objectReference: {fileID: 0}
    - target: {fileID: 487016, guid: 7df412b000e517f45bf54a61af8eaab8, type: 3}
      propertyPath: m_RootOrder
      value: 13
      objectReference: {fileID: 0}
    m_RemovedComponents: []
  m_SourcePrefab: {fileID: 100100000, guid: 7df412b000e517f45bf54a61af8eaab8, type: 3}
--- !u!1001 &505528472
PrefabInstance:
  m_ObjectHideFlags: 0
  serializedVersion: 2
  m_Modification:
    m_TransformParent: {fileID: 0}
    m_Modifications:
    - target: {fileID: 489230, guid: 16f93aebbe56f604cbd07ddf19840c39, type: 3}
      propertyPath: m_LocalPosition.x
      value: 3.28
      objectReference: {fileID: 0}
    - target: {fileID: 489230, guid: 16f93aebbe56f604cbd07ddf19840c39, type: 3}
      propertyPath: m_LocalPosition.y
      value: 0
      objectReference: {fileID: 0}
    - target: {fileID: 489230, guid: 16f93aebbe56f604cbd07ddf19840c39, type: 3}
      propertyPath: m_LocalPosition.z
      value: 0
      objectReference: {fileID: 0}
    - target: {fileID: 489230, guid: 16f93aebbe56f604cbd07ddf19840c39, type: 3}
      propertyPath: m_LocalRotation.x
      value: 0
      objectReference: {fileID: 0}
    - target: {fileID: 489230, guid: 16f93aebbe56f604cbd07ddf19840c39, type: 3}
      propertyPath: m_LocalRotation.y
      value: 0
      objectReference: {fileID: 0}
    - target: {fileID: 489230, guid: 16f93aebbe56f604cbd07ddf19840c39, type: 3}
      propertyPath: m_LocalRotation.z
      value: 0
      objectReference: {fileID: 0}
    - target: {fileID: 489230, guid: 16f93aebbe56f604cbd07ddf19840c39, type: 3}
      propertyPath: m_LocalRotation.w
      value: 1
      objectReference: {fileID: 0}
    - target: {fileID: 489230, guid: 16f93aebbe56f604cbd07ddf19840c39, type: 3}
      propertyPath: m_RootOrder
      value: 6
      objectReference: {fileID: 0}
    m_RemovedComponents: []
  m_SourcePrefab: {fileID: 100100000, guid: 16f93aebbe56f604cbd07ddf19840c39, type: 3}
--- !u!1001 &529779016
PrefabInstance:
  m_ObjectHideFlags: 0
  serializedVersion: 2
  m_Modification:
    m_TransformParent: {fileID: 0}
    m_Modifications:
    - target: {fileID: 442902, guid: 63207178c574d6f43a7ead2691e469bd, type: 3}
      propertyPath: m_LocalPosition.x
      value: -4.43
      objectReference: {fileID: 0}
    - target: {fileID: 442902, guid: 63207178c574d6f43a7ead2691e469bd, type: 3}
      propertyPath: m_LocalPosition.y
      value: 1.46
      objectReference: {fileID: 0}
    - target: {fileID: 442902, guid: 63207178c574d6f43a7ead2691e469bd, type: 3}
      propertyPath: m_LocalPosition.z
      value: 0
      objectReference: {fileID: 0}
    - target: {fileID: 442902, guid: 63207178c574d6f43a7ead2691e469bd, type: 3}
      propertyPath: m_LocalRotation.x
      value: 0
      objectReference: {fileID: 0}
    - target: {fileID: 442902, guid: 63207178c574d6f43a7ead2691e469bd, type: 3}
      propertyPath: m_LocalRotation.y
      value: 0
      objectReference: {fileID: 0}
    - target: {fileID: 442902, guid: 63207178c574d6f43a7ead2691e469bd, type: 3}
      propertyPath: m_LocalRotation.z
      value: 0
      objectReference: {fileID: 0}
    - target: {fileID: 442902, guid: 63207178c574d6f43a7ead2691e469bd, type: 3}
      propertyPath: m_LocalRotation.w
      value: 1
      objectReference: {fileID: 0}
    - target: {fileID: 442902, guid: 63207178c574d6f43a7ead2691e469bd, type: 3}
      propertyPath: m_RootOrder
      value: 11
      objectReference: {fileID: 0}
    - target: {fileID: 3397580, guid: 63207178c574d6f43a7ead2691e469bd, type: 3}
      propertyPath: m_Mesh
      value: 
      objectReference: {fileID: 4300000, guid: 0a0e34400d746424596313417bfbd364, type: 3}
    - target: {fileID: 2343522, guid: 63207178c574d6f43a7ead2691e469bd, type: 3}
      propertyPath: m_Materials.Array.data[0]
      value: 
      objectReference: {fileID: 2100000, guid: 92730c49ad94b65489aeb5ed2e7c5179, type: 2}
    - target: {fileID: 3370674, guid: 63207178c574d6f43a7ead2691e469bd, type: 3}
      propertyPath: m_Mesh
      value: 
      objectReference: {fileID: 4300000, guid: 0a0e34400d746424596313417bfbd364, type: 3}
    - target: {fileID: 2356322, guid: 63207178c574d6f43a7ead2691e469bd, type: 3}
      propertyPath: m_Materials.Array.data[0]
      value: 
      objectReference: {fileID: 2100000, guid: 92730c49ad94b65489aeb5ed2e7c5179, type: 2}
    - target: {fileID: 3361964, guid: 63207178c574d6f43a7ead2691e469bd, type: 3}
      propertyPath: m_Mesh
      value: 
      objectReference: {fileID: 4300000, guid: 0a0e34400d746424596313417bfbd364, type: 3}
    - target: {fileID: 2330894, guid: 63207178c574d6f43a7ead2691e469bd, type: 3}
      propertyPath: m_Materials.Array.data[0]
      value: 
      objectReference: {fileID: 2100000, guid: 92730c49ad94b65489aeb5ed2e7c5179, type: 2}
    m_RemovedComponents: []
  m_SourcePrefab: {fileID: 100100000, guid: 63207178c574d6f43a7ead2691e469bd, type: 3}
--- !u!1001 &555925442
PrefabInstance:
  m_ObjectHideFlags: 0
  serializedVersion: 2
  m_Modification:
    m_TransformParent: {fileID: 0}
    m_Modifications:
    - target: {fileID: 453994, guid: 527ddb38aa3c583479ae8906bc115e9e, type: 3}
      propertyPath: m_LocalPosition.x
      value: -0.72
      objectReference: {fileID: 0}
    - target: {fileID: 453994, guid: 527ddb38aa3c583479ae8906bc115e9e, type: 3}
      propertyPath: m_LocalPosition.y
      value: -2.14
      objectReference: {fileID: 0}
    - target: {fileID: 453994, guid: 527ddb38aa3c583479ae8906bc115e9e, type: 3}
      propertyPath: m_LocalPosition.z
      value: 0
      objectReference: {fileID: 0}
    - target: {fileID: 453994, guid: 527ddb38aa3c583479ae8906bc115e9e, type: 3}
      propertyPath: m_LocalRotation.x
      value: -0.29381695
      objectReference: {fileID: 0}
    - target: {fileID: 453994, guid: 527ddb38aa3c583479ae8906bc115e9e, type: 3}
      propertyPath: m_LocalRotation.y
      value: 0
      objectReference: {fileID: 0}
    - target: {fileID: 453994, guid: 527ddb38aa3c583479ae8906bc115e9e, type: 3}
      propertyPath: m_LocalRotation.z
      value: 0
      objectReference: {fileID: 0}
    - target: {fileID: 453994, guid: 527ddb38aa3c583479ae8906bc115e9e, type: 3}
      propertyPath: m_LocalRotation.w
      value: 0.95586175
      objectReference: {fileID: 0}
    - target: {fileID: 453994, guid: 527ddb38aa3c583479ae8906bc115e9e, type: 3}
      propertyPath: m_RootOrder
      value: 17
      objectReference: {fileID: 0}
    - target: {fileID: 453994, guid: 527ddb38aa3c583479ae8906bc115e9e, type: 3}
      propertyPath: m_LocalScale.x
      value: 2
      objectReference: {fileID: 0}
    - target: {fileID: 453994, guid: 527ddb38aa3c583479ae8906bc115e9e, type: 3}
      propertyPath: m_LocalScale.y
      value: 2
      objectReference: {fileID: 0}
    - target: {fileID: 453994, guid: 527ddb38aa3c583479ae8906bc115e9e, type: 3}
      propertyPath: m_LocalScale.z
      value: 2
      objectReference: {fileID: 0}
    - target: {fileID: 3393338, guid: 527ddb38aa3c583479ae8906bc115e9e, type: 3}
      propertyPath: m_Mesh
      value: 
      objectReference: {fileID: 4300000, guid: b9a174045453e374c95d593664055ce3, type: 3}
    m_RemovedComponents: []
  m_SourcePrefab: {fileID: 100100000, guid: 527ddb38aa3c583479ae8906bc115e9e, type: 3}
--- !u!1001 &694540633
PrefabInstance:
  m_ObjectHideFlags: 0
  serializedVersion: 2
  m_Modification:
    m_TransformParent: {fileID: 0}
    m_Modifications:
    - target: {fileID: 401936, guid: 426f8534717042443b6681b61de0372f, type: 3}
      propertyPath: m_LocalPosition.x
      value: 0.54
      objectReference: {fileID: 0}
    - target: {fileID: 401936, guid: 426f8534717042443b6681b61de0372f, type: 3}
      propertyPath: m_LocalPosition.y
      value: 1.3
      objectReference: {fileID: 0}
    - target: {fileID: 401936, guid: 426f8534717042443b6681b61de0372f, type: 3}
      propertyPath: m_LocalPosition.z
      value: 0.14
      objectReference: {fileID: 0}
    - target: {fileID: 401936, guid: 426f8534717042443b6681b61de0372f, type: 3}
      propertyPath: m_LocalRotation.x
      value: -0.0014441718
      objectReference: {fileID: 0}
    - target: {fileID: 401936, guid: 426f8534717042443b6681b61de0372f, type: 3}
      propertyPath: m_LocalRotation.y
      value: 0.9944552
      objectReference: {fileID: 0}
    - target: {fileID: 401936, guid: 426f8534717042443b6681b61de0372f, type: 3}
      propertyPath: m_LocalRotation.z
      value: 0.09309478
      objectReference: {fileID: 0}
    - target: {fileID: 401936, guid: 426f8534717042443b6681b61de0372f, type: 3}
      propertyPath: m_LocalRotation.w
      value: -0.04888903
      objectReference: {fileID: 0}
    - target: {fileID: 401936, guid: 426f8534717042443b6681b61de0372f, type: 3}
      propertyPath: m_RootOrder
      value: 14
      objectReference: {fileID: 0}
    - target: {fileID: 401936, guid: 426f8534717042443b6681b61de0372f, type: 3}
      propertyPath: m_LocalScale.x
      value: 2
      objectReference: {fileID: 0}
    - target: {fileID: 401936, guid: 426f8534717042443b6681b61de0372f, type: 3}
      propertyPath: m_LocalScale.y
      value: 2
      objectReference: {fileID: 0}
    - target: {fileID: 401936, guid: 426f8534717042443b6681b61de0372f, type: 3}
      propertyPath: m_LocalScale.z
      value: 0
      objectReference: {fileID: 0}
    - target: {fileID: 2319476, guid: 426f8534717042443b6681b61de0372f, type: 3}
      propertyPath: m_UseLightProbes
      value: 1
      objectReference: {fileID: 0}
    m_RemovedComponents: []
  m_SourcePrefab: {fileID: 100100000, guid: 426f8534717042443b6681b61de0372f, type: 3}
--- !u!1001 &812231286
PrefabInstance:
  m_ObjectHideFlags: 0
  serializedVersion: 2
  m_Modification:
    m_TransformParent: {fileID: 0}
    m_Modifications:
    - target: {fileID: 466734, guid: 6b308a2cf4784674b84bff2819583aad, type: 3}
      propertyPath: m_LocalPosition.x
      value: -2.84
      objectReference: {fileID: 0}
    - target: {fileID: 466734, guid: 6b308a2cf4784674b84bff2819583aad, type: 3}
      propertyPath: m_LocalPosition.y
      value: -2.05
      objectReference: {fileID: 0}
    - target: {fileID: 466734, guid: 6b308a2cf4784674b84bff2819583aad, type: 3}
      propertyPath: m_LocalPosition.z
      value: 0
      objectReference: {fileID: 0}
    - target: {fileID: 466734, guid: 6b308a2cf4784674b84bff2819583aad, type: 3}
      propertyPath: m_LocalRotation.x
      value: -0.51059276
      objectReference: {fileID: 0}
    - target: {fileID: 466734, guid: 6b308a2cf4784674b84bff2819583aad, type: 3}
      propertyPath: m_LocalRotation.y
      value: -0.3415744
      objectReference: {fileID: 0}
    - target: {fileID: 466734, guid: 6b308a2cf4784674b84bff2819583aad, type: 3}
      propertyPath: m_LocalRotation.z
      value: 0.1788335
      objectReference: {fileID: 0}
    - target: {fileID: 466734, guid: 6b308a2cf4784674b84bff2819583aad, type: 3}
      propertyPath: m_LocalRotation.w
      value: 0.7685315
      objectReference: {fileID: 0}
    - target: {fileID: 466734, guid: 6b308a2cf4784674b84bff2819583aad, type: 3}
      propertyPath: m_RootOrder
      value: 16
      objectReference: {fileID: 0}
    - target: {fileID: 466734, guid: 6b308a2cf4784674b84bff2819583aad, type: 3}
      propertyPath: m_LocalScale.x
      value: 1.5
      objectReference: {fileID: 0}
    - target: {fileID: 466734, guid: 6b308a2cf4784674b84bff2819583aad, type: 3}
      propertyPath: m_LocalScale.y
      value: 1.5
      objectReference: {fileID: 0}
    - target: {fileID: 466734, guid: 6b308a2cf4784674b84bff2819583aad, type: 3}
      propertyPath: m_LocalScale.z
      value: 1.5
      objectReference: {fileID: 0}
    - target: {fileID: 3372500, guid: 6b308a2cf4784674b84bff2819583aad, type: 3}
      propertyPath: m_Mesh
      value: 
      objectReference: {fileID: 4300000, guid: f1118febaa0391e4187e80a553fb9b49, type: 3}
    m_RemovedComponents: []
  m_SourcePrefab: {fileID: 100100000, guid: 6b308a2cf4784674b84bff2819583aad, type: 3}
--- !u!1001 &821546541
PrefabInstance:
  m_ObjectHideFlags: 0
  serializedVersion: 2
  m_Modification:
    m_TransformParent: {fileID: 0}
    m_Modifications:
    - target: {fileID: 464830, guid: bb1a6ef5a890dd8489e9d9bed4c86c0a, type: 3}
      propertyPath: m_LocalPosition.x
      value: -4.69
      objectReference: {fileID: 0}
    - target: {fileID: 464830, guid: bb1a6ef5a890dd8489e9d9bed4c86c0a, type: 3}
      propertyPath: m_LocalPosition.y
      value: 0
      objectReference: {fileID: 0}
    - target: {fileID: 464830, guid: bb1a6ef5a890dd8489e9d9bed4c86c0a, type: 3}
      propertyPath: m_LocalPosition.z
      value: 0
      objectReference: {fileID: 0}
    - target: {fileID: 464830, guid: bb1a6ef5a890dd8489e9d9bed4c86c0a, type: 3}
      propertyPath: m_LocalRotation.x
      value: 0
      objectReference: {fileID: 0}
    - target: {fileID: 464830, guid: bb1a6ef5a890dd8489e9d9bed4c86c0a, type: 3}
      propertyPath: m_LocalRotation.y
      value: -0.7498902
      objectReference: {fileID: 0}
    - target: {fileID: 464830, guid: bb1a6ef5a890dd8489e9d9bed4c86c0a, type: 3}
      propertyPath: m_LocalRotation.z
      value: 0
      objectReference: {fileID: 0}
    - target: {fileID: 464830, guid: bb1a6ef5a890dd8489e9d9bed4c86c0a, type: 3}
      propertyPath: m_LocalRotation.w
      value: 0.6615624
      objectReference: {fileID: 0}
    - target: {fileID: 464830, guid: bb1a6ef5a890dd8489e9d9bed4c86c0a, type: 3}
      propertyPath: m_RootOrder
      value: 1
      objectReference: {fileID: 0}
    m_RemovedComponents: []
  m_SourcePrefab: {fileID: 100100000, guid: bb1a6ef5a890dd8489e9d9bed4c86c0a, type: 3}
--- !u!1001 &916010987
PrefabInstance:
  m_ObjectHideFlags: 0
  serializedVersion: 2
  m_Modification:
    m_TransformParent: {fileID: 0}
    m_Modifications:
    - target: {fileID: 452108, guid: 99b3dc62b0e0dc94a8d193242ede6afa, type: 3}
      propertyPath: m_LocalPosition.x
      value: -4.49
      objectReference: {fileID: 0}
    - target: {fileID: 452108, guid: 99b3dc62b0e0dc94a8d193242ede6afa, type: 3}
      propertyPath: m_LocalPosition.y
      value: -2.23
      objectReference: {fileID: 0}
    - target: {fileID: 452108, guid: 99b3dc62b0e0dc94a8d193242ede6afa, type: 3}
      propertyPath: m_LocalPosition.z
      value: 0
      objectReference: {fileID: 0}
    - target: {fileID: 452108, guid: 99b3dc62b0e0dc94a8d193242ede6afa, type: 3}
      propertyPath: m_LocalRotation.x
      value: 0
      objectReference: {fileID: 0}
    - target: {fileID: 452108, guid: 99b3dc62b0e0dc94a8d193242ede6afa, type: 3}
      propertyPath: m_LocalRotation.y
      value: 1
      objectReference: {fileID: 0}
    - target: {fileID: 452108, guid: 99b3dc62b0e0dc94a8d193242ede6afa, type: 3}
      propertyPath: m_LocalRotation.z
      value: 0
      objectReference: {fileID: 0}
    - target: {fileID: 452108, guid: 99b3dc62b0e0dc94a8d193242ede6afa, type: 3}
      propertyPath: m_LocalRotation.w
      value: -0.00000016292068
      objectReference: {fileID: 0}
    - target: {fileID: 452108, guid: 99b3dc62b0e0dc94a8d193242ede6afa, type: 3}
      propertyPath: m_RootOrder
      value: 15
      objectReference: {fileID: 0}
    m_RemovedComponents: []
  m_SourcePrefab: {fileID: 100100000, guid: 99b3dc62b0e0dc94a8d193242ede6afa, type: 3}
--- !u!1001 &1118638308
PrefabInstance:
  m_ObjectHideFlags: 0
  serializedVersion: 2
  m_Modification:
    m_TransformParent: {fileID: 0}
    m_Modifications:
    - target: {fileID: 435580, guid: bcd5ab9be4816d4418a27554cbca6474, type: 3}
      propertyPath: m_LocalPosition.x
      value: -1.5
      objectReference: {fileID: 0}
    - target: {fileID: 435580, guid: bcd5ab9be4816d4418a27554cbca6474, type: 3}
      propertyPath: m_LocalPosition.y
      value: 0
      objectReference: {fileID: 0}
    - target: {fileID: 435580, guid: bcd5ab9be4816d4418a27554cbca6474, type: 3}
      propertyPath: m_LocalPosition.z
      value: 0
      objectReference: {fileID: 0}
    - target: {fileID: 435580, guid: bcd5ab9be4816d4418a27554cbca6474, type: 3}
      propertyPath: m_LocalRotation.x
      value: 0
      objectReference: {fileID: 0}
    - target: {fileID: 435580, guid: bcd5ab9be4816d4418a27554cbca6474, type: 3}
      propertyPath: m_LocalRotation.y
      value: 0
      objectReference: {fileID: 0}
    - target: {fileID: 435580, guid: bcd5ab9be4816d4418a27554cbca6474, type: 3}
      propertyPath: m_LocalRotation.z
      value: 0
      objectReference: {fileID: 0}
    - target: {fileID: 435580, guid: bcd5ab9be4816d4418a27554cbca6474, type: 3}
      propertyPath: m_LocalRotation.w
      value: 1
      objectReference: {fileID: 0}
    - target: {fileID: 435580, guid: bcd5ab9be4816d4418a27554cbca6474, type: 3}
      propertyPath: m_RootOrder
      value: 3
      objectReference: {fileID: 0}
    m_RemovedComponents: []
  m_SourcePrefab: {fileID: 100100000, guid: bcd5ab9be4816d4418a27554cbca6474, type: 3}
--- !u!1 &1290036800
GameObject:
  m_ObjectHideFlags: 0
  m_CorrespondingSourceObject: {fileID: 0}
  m_PrefabInstance: {fileID: 0}
  m_PrefabAsset: {fileID: 0}
  serializedVersion: 6
  m_Component:
  - component: {fileID: 1290036802}
  - component: {fileID: 1290036801}
  m_Layer: 0
  m_Name: Point light
  m_TagString: Untagged
  m_Icon: {fileID: 0}
  m_NavMeshLayer: 0
  m_StaticEditorFlags: 0
  m_IsActive: 1
--- !u!108 &1290036801
Light:
  m_ObjectHideFlags: 0
  m_CorrespondingSourceObject: {fileID: 0}
  m_PrefabInstance: {fileID: 0}
  m_PrefabAsset: {fileID: 0}
  m_GameObject: {fileID: 1290036800}
  m_Enabled: 1
  serializedVersion: 9
  m_Type: 2
  m_Color: {r: 0.7700051, g: 0.7794118, b: 0.6819853, a: 1}
  m_Intensity: 1
  m_Range: 19.94
  m_SpotAngle: 30
  m_InnerSpotAngle: 21.80208
  m_CookieSize: 10
  m_Shadows:
    m_Type: 0
    m_Resolution: -1
    m_CustomResolution: -1
    m_Strength: 1
    m_Bias: 0.05
    m_NormalBias: 0.4
    m_NearPlane: 0.2
    m_CullingMatrixOverride:
      e00: 1
      e01: 0
      e02: 0
      e03: 0
      e10: 0
      e11: 1
      e12: 0
      e13: 0
      e20: 0
      e21: 0
      e22: 1
      e23: 0
      e30: 0
      e31: 0
      e32: 0
      e33: 1
    m_UseCullingMatrixOverride: 0
  m_Cookie: {fileID: 0}
  m_DrawHalo: 0
  m_Flare: {fileID: 0}
  m_RenderMode: 0
  m_CullingMask:
    serializedVersion: 2
    m_Bits: 4294967295
  m_RenderingLayerMask: 1
  m_Lightmapping: 4
  m_LightShadowCasterMode: 0
  m_AreaSize: {x: 1, y: 1}
  m_BounceIntensity: 0.9
  m_ColorTemperature: 6570
  m_UseColorTemperature: 0
  m_BoundingSphereOverride: {x: 0, y: 0, z: 0, w: 0}
  m_UseBoundingSphereOverride: 0
  m_ShadowRadius: 0
  m_ShadowAngle: 0
--- !u!4 &1290036802
Transform:
  m_ObjectHideFlags: 0
  m_CorrespondingSourceObject: {fileID: 0}
  m_PrefabInstance: {fileID: 0}
  m_PrefabAsset: {fileID: 0}
  m_GameObject: {fileID: 1290036800}
  m_LocalRotation: {x: 0, y: 0, z: 0, w: 1}
  m_LocalPosition: {x: 1.03, y: 4.53, z: -1.41}
  m_LocalScale: {x: 1, y: 1, z: 1}
  m_Children: []
  m_Father: {fileID: 0}
  m_RootOrder: 21
  m_LocalEulerAnglesHint: {x: 0, y: 0, z: 0}
--- !u!1001 &1314461165
PrefabInstance:
  m_ObjectHideFlags: 0
  serializedVersion: 2
  m_Modification:
    m_TransformParent: {fileID: 0}
    m_Modifications:
    - target: {fileID: 484780, guid: 31030c34f220e9e4dbbee59a0041081e, type: 3}
      propertyPath: m_LocalPosition.x
      value: 3.25
      objectReference: {fileID: 0}
    - target: {fileID: 484780, guid: 31030c34f220e9e4dbbee59a0041081e, type: 3}
      propertyPath: m_LocalPosition.y
      value: -1.91
      objectReference: {fileID: 0}
    - target: {fileID: 484780, guid: 31030c34f220e9e4dbbee59a0041081e, type: 3}
      propertyPath: m_LocalPosition.z
      value: 0
      objectReference: {fileID: 0}
    - target: {fileID: 484780, guid: 31030c34f220e9e4dbbee59a0041081e, type: 3}
      propertyPath: m_LocalRotation.x
      value: 0
      objectReference: {fileID: 0}
    - target: {fileID: 484780, guid: 31030c34f220e9e4dbbee59a0041081e, type: 3}
      propertyPath: m_LocalRotation.y
      value: 0
      objectReference: {fileID: 0}
    - target: {fileID: 484780, guid: 31030c34f220e9e4dbbee59a0041081e, type: 3}
      propertyPath: m_LocalRotation.z
      value: 0
      objectReference: {fileID: 0}
    - target: {fileID: 484780, guid: 31030c34f220e9e4dbbee59a0041081e, type: 3}
      propertyPath: m_LocalRotation.w
      value: 1
      objectReference: {fileID: 0}
    - target: {fileID: 484780, guid: 31030c34f220e9e4dbbee59a0041081e, type: 3}
      propertyPath: m_RootOrder
      value: 19
      objectReference: {fileID: 0}
    - target: {fileID: 3362496, guid: 31030c34f220e9e4dbbee59a0041081e, type: 3}
      propertyPath: m_Mesh
      value: 
      objectReference: {fileID: 4300000, guid: e7e16e596a827514eba2667e01296d4a, type: 3}
    m_RemovedComponents: []
  m_SourcePrefab: {fileID: 100100000, guid: 31030c34f220e9e4dbbee59a0041081e, type: 3}
--- !u!1001 &1385708841
PrefabInstance:
  m_ObjectHideFlags: 0
  serializedVersion: 2
  m_Modification:
    m_TransformParent: {fileID: 0}
    m_Modifications:
    - target: {fileID: 423674, guid: 17c6ca175b4aadc458a04dd37daa772a, type: 3}
      propertyPath: m_LocalPosition.x
      value: -3.23
      objectReference: {fileID: 0}
    - target: {fileID: 423674, guid: 17c6ca175b4aadc458a04dd37daa772a, type: 3}
      propertyPath: m_LocalPosition.y
      value: 0
      objectReference: {fileID: 0}
    - target: {fileID: 423674, guid: 17c6ca175b4aadc458a04dd37daa772a, type: 3}
      propertyPath: m_LocalPosition.z
      value: 0
      objectReference: {fileID: 0}
    - target: {fileID: 423674, guid: 17c6ca175b4aadc458a04dd37daa772a, type: 3}
      propertyPath: m_LocalRotation.x
      value: 0
      objectReference: {fileID: 0}
    - target: {fileID: 423674, guid: 17c6ca175b4aadc458a04dd37daa772a, type: 3}
      propertyPath: m_LocalRotation.y
      value: -0.75586414
      objectReference: {fileID: 0}
    - target: {fileID: 423674, guid: 17c6ca175b4aadc458a04dd37daa772a, type: 3}
      propertyPath: m_LocalRotation.z
      value: 0
      objectReference: {fileID: 0}
    - target: {fileID: 423674, guid: 17c6ca175b4aadc458a04dd37daa772a, type: 3}
      propertyPath: m_LocalRotation.w
      value: 0.6547286
      objectReference: {fileID: 0}
    - target: {fileID: 423674, guid: 17c6ca175b4aadc458a04dd37daa772a, type: 3}
      propertyPath: m_RootOrder
      value: 2
      objectReference: {fileID: 0}
    m_RemovedComponents: []
  m_SourcePrefab: {fileID: 100100000, guid: 17c6ca175b4aadc458a04dd37daa772a, type: 3}
--- !u!1001 &1505282938
PrefabInstance:
  m_ObjectHideFlags: 0
  serializedVersion: 2
  m_Modification:
    m_TransformParent: {fileID: 0}
    m_Modifications:
    - target: {fileID: 441016, guid: 21d5c9803f7200f4c960566bd27379bf, type: 3}
      propertyPath: m_LocalPosition.x
      value: 0.74
      objectReference: {fileID: 0}
    - target: {fileID: 441016, guid: 21d5c9803f7200f4c960566bd27379bf, type: 3}
      propertyPath: m_LocalPosition.y
      value: -2.32
      objectReference: {fileID: 0}
    - target: {fileID: 441016, guid: 21d5c9803f7200f4c960566bd27379bf, type: 3}
      propertyPath: m_LocalPosition.z
      value: 0
      objectReference: {fileID: 0}
    - target: {fileID: 441016, guid: 21d5c9803f7200f4c960566bd27379bf, type: 3}
      propertyPath: m_LocalRotation.x
      value: 0
      objectReference: {fileID: 0}
    - target: {fileID: 441016, guid: 21d5c9803f7200f4c960566bd27379bf, type: 3}
      propertyPath: m_LocalRotation.y
      value: 0
      objectReference: {fileID: 0}
    - target: {fileID: 441016, guid: 21d5c9803f7200f4c960566bd27379bf, type: 3}
      propertyPath: m_LocalRotation.z
      value: 0
      objectReference: {fileID: 0}
    - target: {fileID: 441016, guid: 21d5c9803f7200f4c960566bd27379bf, type: 3}
      propertyPath: m_LocalRotation.w
      value: 1
      objectReference: {fileID: 0}
    - target: {fileID: 441016, guid: 21d5c9803f7200f4c960566bd27379bf, type: 3}
      propertyPath: m_RootOrder
      value: 18
      objectReference: {fileID: 0}
    - target: {fileID: 3339806, guid: 21d5c9803f7200f4c960566bd27379bf, type: 3}
      propertyPath: m_Mesh
      value: 
      objectReference: {fileID: 4300000, guid: 49cbc3096995b364c9d42989e52c16aa, type: 3}
    m_RemovedComponents: []
  m_SourcePrefab: {fileID: 100100000, guid: 21d5c9803f7200f4c960566bd27379bf, type: 3}
--- !u!1001 &1554446436
PrefabInstance:
  m_ObjectHideFlags: 0
  serializedVersion: 2
  m_Modification:
    m_TransformParent: {fileID: 0}
    m_Modifications:
    - target: {fileID: 441326, guid: 64d5316cc2ec52e4dac47f07ef7791c4, type: 3}
      propertyPath: m_LocalPosition.x
      value: 1.87
      objectReference: {fileID: 0}
    - target: {fileID: 441326, guid: 64d5316cc2ec52e4dac47f07ef7791c4, type: 3}
      propertyPath: m_LocalPosition.y
      value: 1.41
      objectReference: {fileID: 0}
    - target: {fileID: 441326, guid: 64d5316cc2ec52e4dac47f07ef7791c4, type: 3}
      propertyPath: m_LocalPosition.z
      value: 0
      objectReference: {fileID: 0}
    - target: {fileID: 441326, guid: 64d5316cc2ec52e4dac47f07ef7791c4, type: 3}
      propertyPath: m_LocalRotation.x
      value: 0
      objectReference: {fileID: 0}
    - target: {fileID: 441326, guid: 64d5316cc2ec52e4dac47f07ef7791c4, type: 3}
      propertyPath: m_LocalRotation.y
      value: 0
      objectReference: {fileID: 0}
    - target: {fileID: 441326, guid: 64d5316cc2ec52e4dac47f07ef7791c4, type: 3}
      propertyPath: m_LocalRotation.z
      value: 0
      objectReference: {fileID: 0}
    - target: {fileID: 441326, guid: 64d5316cc2ec52e4dac47f07ef7791c4, type: 3}
      propertyPath: m_LocalRotation.w
      value: 1
      objectReference: {fileID: 0}
    - target: {fileID: 441326, guid: 64d5316cc2ec52e4dac47f07ef7791c4, type: 3}
      propertyPath: m_RootOrder
      value: 8
      objectReference: {fileID: 0}
    m_RemovedComponents: []
  m_SourcePrefab: {fileID: 100100000, guid: 64d5316cc2ec52e4dac47f07ef7791c4, type: 3}
--- !u!1001 &1568584497
PrefabInstance:
  m_ObjectHideFlags: 0
  serializedVersion: 2
  m_Modification:
    m_TransformParent: {fileID: 0}
    m_Modifications:
    - target: {fileID: 447100, guid: 9b41b70113f76be4bab676c17ba24a00, type: 3}
      propertyPath: m_LocalPosition.x
      value: 4.61
      objectReference: {fileID: 0}
    - target: {fileID: 447100, guid: 9b41b70113f76be4bab676c17ba24a00, type: 3}
      propertyPath: m_LocalPosition.y
      value: 0
      objectReference: {fileID: 0}
    - target: {fileID: 447100, guid: 9b41b70113f76be4bab676c17ba24a00, type: 3}
      propertyPath: m_LocalPosition.z
      value: 0
      objectReference: {fileID: 0}
    - target: {fileID: 447100, guid: 9b41b70113f76be4bab676c17ba24a00, type: 3}
      propertyPath: m_LocalRotation.x
      value: 0
      objectReference: {fileID: 0}
    - target: {fileID: 447100, guid: 9b41b70113f76be4bab676c17ba24a00, type: 3}
      propertyPath: m_LocalRotation.y
      value: 0
      objectReference: {fileID: 0}
    - target: {fileID: 447100, guid: 9b41b70113f76be4bab676c17ba24a00, type: 3}
      propertyPath: m_LocalRotation.z
      value: 0
      objectReference: {fileID: 0}
    - target: {fileID: 447100, guid: 9b41b70113f76be4bab676c17ba24a00, type: 3}
      propertyPath: m_LocalRotation.w
      value: 1
      objectReference: {fileID: 0}
    - target: {fileID: 447100, guid: 9b41b70113f76be4bab676c17ba24a00, type: 3}
      propertyPath: m_RootOrder
      value: 7
      objectReference: {fileID: 0}
    m_RemovedComponents: []
  m_SourcePrefab: {fileID: 100100000, guid: 9b41b70113f76be4bab676c17ba24a00, type: 3}
--- !u!1001 &1623891157
PrefabInstance:
  m_ObjectHideFlags: 0
  serializedVersion: 2
  m_Modification:
    m_TransformParent: {fileID: 0}
    m_Modifications:
    - target: {fileID: 447290, guid: ffb0330b28dfc07479b3c043390e584e, type: 3}
      propertyPath: m_LocalPosition.x
      value: -2.44
      objectReference: {fileID: 0}
    - target: {fileID: 447290, guid: ffb0330b28dfc07479b3c043390e584e, type: 3}
      propertyPath: m_LocalPosition.y
      value: 1.44
      objectReference: {fileID: 0}
    - target: {fileID: 447290, guid: ffb0330b28dfc07479b3c043390e584e, type: 3}
      propertyPath: m_LocalPosition.z
      value: 0
      objectReference: {fileID: 0}
    - target: {fileID: 447290, guid: ffb0330b28dfc07479b3c043390e584e, type: 3}
      propertyPath: m_LocalRotation.x
      value: 0
      objectReference: {fileID: 0}
    - target: {fileID: 447290, guid: ffb0330b28dfc07479b3c043390e584e, type: 3}
      propertyPath: m_LocalRotation.y
      value: 1
      objectReference: {fileID: 0}
    - target: {fileID: 447290, guid: ffb0330b28dfc07479b3c043390e584e, type: 3}
      propertyPath: m_LocalRotation.z
      value: 0
      objectReference: {fileID: 0}
    - target: {fileID: 447290, guid: ffb0330b28dfc07479b3c043390e584e, type: 3}
      propertyPath: m_LocalRotation.w
      value: -0.00000016292068
      objectReference: {fileID: 0}
    - target: {fileID: 447290, guid: ffb0330b28dfc07479b3c043390e584e, type: 3}
      propertyPath: m_RootOrder
      value: 12
      objectReference: {fileID: 0}
    m_RemovedComponents: []
  m_SourcePrefab: {fileID: 100100000, guid: ffb0330b28dfc07479b3c043390e584e, type: 3}
--- !u!1 &1726244104
GameObject:
  m_ObjectHideFlags: 0
  m_CorrespondingSourceObject: {fileID: 0}
  m_PrefabInstance: {fileID: 0}
  m_PrefabAsset: {fileID: 0}
  serializedVersion: 6
  m_Component:
  - component: {fileID: 1726244106}
  - component: {fileID: 1726244105}
  m_Layer: 0
  m_Name: Directional light
  m_TagString: Untagged
  m_Icon: {fileID: 0}
  m_NavMeshLayer: 0
  m_StaticEditorFlags: 0
  m_IsActive: 1
--- !u!108 &1726244105
Light:
  m_ObjectHideFlags: 0
  m_CorrespondingSourceObject: {fileID: 0}
  m_PrefabInstance: {fileID: 0}
  m_PrefabAsset: {fileID: 0}
  m_GameObject: {fileID: 1726244104}
  m_Enabled: 1
  serializedVersion: 9
  m_Type: 1
  m_Color: {r: 1, g: 0.9340771, b: 0.8161765, a: 1}
  m_Intensity: 0.6
  m_Range: 10
  m_SpotAngle: 30
  m_InnerSpotAngle: 21.80208
  m_CookieSize: 10
  m_Shadows:
    m_Type: 0
    m_Resolution: -1
    m_CustomResolution: -1
    m_Strength: 1
    m_Bias: 0.05
    m_NormalBias: 0.4
    m_NearPlane: 0.2
    m_CullingMatrixOverride:
      e00: 1
      e01: 0
      e02: 0
      e03: 0
      e10: 0
      e11: 1
      e12: 0
      e13: 0
      e20: 0
      e21: 0
      e22: 1
      e23: 0
      e30: 0
      e31: 0
      e32: 0
      e33: 1
    m_UseCullingMatrixOverride: 0
  m_Cookie: {fileID: 0}
  m_DrawHalo: 0
  m_Flare: {fileID: 0}
  m_RenderMode: 0
  m_CullingMask:
    serializedVersion: 2
    m_Bits: 4294967295
  m_RenderingLayerMask: 1
  m_Lightmapping: 4
  m_LightShadowCasterMode: 0
  m_AreaSize: {x: 1, y: 1}
  m_BounceIntensity: 0.9
  m_ColorTemperature: 6570
  m_UseColorTemperature: 0
  m_BoundingSphereOverride: {x: 0, y: 0, z: 0, w: 0}
  m_UseBoundingSphereOverride: 0
  m_ShadowRadius: 0
  m_ShadowAngle: 0
--- !u!4 &1726244106
Transform:
  m_ObjectHideFlags: 0
  m_CorrespondingSourceObject: {fileID: 0}
  m_PrefabInstance: {fileID: 0}
  m_PrefabAsset: {fileID: 0}
  m_GameObject: {fileID: 1726244104}
  m_LocalRotation: {x: 0.3970829, y: -0.17241496, z: 0.22516167, w: 0.87286913}
  m_LocalPosition: {x: -2.44, y: 6.09, z: -2.94}
  m_LocalScale: {x: 1, y: 1, z: 1}
  m_Children: []
  m_Father: {fileID: 0}
  m_RootOrder: 20
  m_LocalEulerAnglesHint: {x: 0, y: 0, z: 0}
--- !u!1001 &1748954498
PrefabInstance:
  m_ObjectHideFlags: 0
  serializedVersion: 2
  m_Modification:
    m_TransformParent: {fileID: 0}
    m_Modifications:
    - target: {fileID: 485368, guid: 6b1f1e55f7a6d3441b6121b7d3416479, type: 3}
      propertyPath: m_LocalPosition.x
      value: 3.21
      objectReference: {fileID: 0}
    - target: {fileID: 485368, guid: 6b1f1e55f7a6d3441b6121b7d3416479, type: 3}
      propertyPath: m_LocalPosition.y
      value: 1.41
      objectReference: {fileID: 0}
    - target: {fileID: 485368, guid: 6b1f1e55f7a6d3441b6121b7d3416479, type: 3}
      propertyPath: m_LocalPosition.z
      value: 0
      objectReference: {fileID: 0}
    - target: {fileID: 485368, guid: 6b1f1e55f7a6d3441b6121b7d3416479, type: 3}
      propertyPath: m_LocalRotation.x
      value: 0
      objectReference: {fileID: 0}
    - target: {fileID: 485368, guid: 6b1f1e55f7a6d3441b6121b7d3416479, type: 3}
      propertyPath: m_LocalRotation.y
      value: 0
      objectReference: {fileID: 0}
    - target: {fileID: 485368, guid: 6b1f1e55f7a6d3441b6121b7d3416479, type: 3}
      propertyPath: m_LocalRotation.z
      value: 0
      objectReference: {fileID: 0}
    - target: {fileID: 485368, guid: 6b1f1e55f7a6d3441b6121b7d3416479, type: 3}
      propertyPath: m_LocalRotation.w
      value: 1
      objectReference: {fileID: 0}
    - target: {fileID: 485368, guid: 6b1f1e55f7a6d3441b6121b7d3416479, type: 3}
      propertyPath: m_RootOrder
      value: 9
      objectReference: {fileID: 0}
    m_RemovedComponents: []
  m_SourcePrefab: {fileID: 100100000, guid: 6b1f1e55f7a6d3441b6121b7d3416479, type: 3}
--- !u!1001 &1784856994
PrefabInstance:
  m_ObjectHideFlags: 0
  serializedVersion: 2
  m_Modification:
    m_TransformParent: {fileID: 0}
    m_Modifications:
    - target: {fileID: 413818, guid: b05c25d12ca0fe24e9b0c4dc55d4100c, type: 3}
      propertyPath: m_LocalPosition.x
      value: 0.14
      objectReference: {fileID: 0}
    - target: {fileID: 413818, guid: b05c25d12ca0fe24e9b0c4dc55d4100c, type: 3}
      propertyPath: m_LocalPosition.y
      value: 0
      objectReference: {fileID: 0}
    - target: {fileID: 413818, guid: b05c25d12ca0fe24e9b0c4dc55d4100c, type: 3}
      propertyPath: m_LocalPosition.z
      value: 0
      objectReference: {fileID: 0}
    - target: {fileID: 413818, guid: b05c25d12ca0fe24e9b0c4dc55d4100c, type: 3}
      propertyPath: m_LocalRotation.x
      value: 0
      objectReference: {fileID: 0}
    - target: {fileID: 413818, guid: b05c25d12ca0fe24e9b0c4dc55d4100c, type: 3}
      propertyPath: m_LocalRotation.y
      value: 0
      objectReference: {fileID: 0}
    - target: {fileID: 413818, guid: b05c25d12ca0fe24e9b0c4dc55d4100c, type: 3}
      propertyPath: m_LocalRotation.z
      value: 0
      objectReference: {fileID: 0}
    - target: {fileID: 413818, guid: b05c25d12ca0fe24e9b0c4dc55d4100c, type: 3}
      propertyPath: m_LocalRotation.w
      value: 1
      objectReference: {fileID: 0}
    - target: {fileID: 413818, guid: b05c25d12ca0fe24e9b0c4dc55d4100c, type: 3}
      propertyPath: m_RootOrder
      value: 4
      objectReference: {fileID: 0}
    m_RemovedComponents: []
  m_SourcePrefab: {fileID: 100100000, guid: b05c25d12ca0fe24e9b0c4dc55d4100c, type: 3}
--- !u!1 &1963359624
GameObject:
  m_ObjectHideFlags: 0
  m_CorrespondingSourceObject: {fileID: 0}
  m_PrefabInstance: {fileID: 0}
  m_PrefabAsset: {fileID: 0}
  serializedVersion: 6
  m_Component:
  - component: {fileID: 1963359629}
  - component: {fileID: 1963359628}
  - component: {fileID: 1963359627}
  - component: {fileID: 1963359626}
  - component: {fileID: 1963359625}
  m_Layer: 0
  m_Name: Main Camera
  m_TagString: MainCamera
  m_Icon: {fileID: 0}
  m_NavMeshLayer: 0
  m_StaticEditorFlags: 0
  m_IsActive: 1
--- !u!81 &1963359625
AudioListener:
  m_ObjectHideFlags: 0
  m_CorrespondingSourceObject: {fileID: 0}
  m_PrefabInstance: {fileID: 0}
  m_PrefabAsset: {fileID: 0}
  m_GameObject: {fileID: 1963359624}
  m_Enabled: 1
--- !u!124 &1963359626
Behaviour:
  m_ObjectHideFlags: 0
  m_CorrespondingSourceObject: {fileID: 0}
  m_PrefabInstance: {fileID: 0}
  m_PrefabAsset: {fileID: 0}
  m_GameObject: {fileID: 1963359624}
  m_Enabled: 1
--- !u!92 &1963359627
Behaviour:
  m_ObjectHideFlags: 0
  m_CorrespondingSourceObject: {fileID: 0}
  m_PrefabInstance: {fileID: 0}
  m_PrefabAsset: {fileID: 0}
  m_GameObject: {fileID: 1963359624}
  m_Enabled: 1
--- !u!20 &1963359628
Camera:
  m_ObjectHideFlags: 0
  m_CorrespondingSourceObject: {fileID: 0}
  m_PrefabInstance: {fileID: 0}
  m_PrefabAsset: {fileID: 0}
  m_GameObject: {fileID: 1963359624}
  m_Enabled: 1
  serializedVersion: 2
  m_ClearFlags: 1
  m_BackGroundColor: {r: 0.19215687, g: 0.3019608, b: 0.4745098, a: 0.019607844}
  m_projectionMatrixMode: 1
  m_GateFitMode: 2
  m_FOVAxisMode: 0
  m_SensorSize: {x: 36, y: 24}
  m_LensShift: {x: 0, y: 0}
  m_FocalLength: 50
  m_NormalizedViewPortRect:
    serializedVersion: 2
    x: 0
    y: 0
    width: 1
    height: 1
  near clip plane: 0.3
  far clip plane: 1000
  field of view: 60
  orthographic: 1
  orthographic size: 5
  m_Depth: -1
  m_CullingMask:
    serializedVersion: 2
    m_Bits: 4294967295
  m_RenderingPath: -1
  m_TargetTexture: {fileID: 0}
  m_TargetDisplay: 0
  m_TargetEye: 3
  m_HDR: 0
  m_AllowMSAA: 1
  m_AllowDynamicResolution: 0
  m_ForceIntoRT: 0
  m_OcclusionCulling: 1
  m_StereoConvergence: 10
  m_StereoSeparation: 0.022
--- !u!4 &1963359629
Transform:
  m_ObjectHideFlags: 0
  m_CorrespondingSourceObject: {fileID: 0}
  m_PrefabInstance: {fileID: 0}
  m_PrefabAsset: {fileID: 0}
  m_GameObject: {fileID: 1963359624}
  m_LocalRotation: {x: 0.15346697, y: 0, z: 0, w: 0.9881538}
  m_LocalPosition: {x: 0, y: 3.67, z: -10}
  m_LocalScale: {x: 1, y: 1, z: 1}
  m_Children: []
  m_Father: {fileID: 0}
  m_RootOrder: 0
  m_LocalEulerAnglesHint: {x: 0, y: 0, z: 0}
